…
    ## Rows: 1868 Columns: 32
    ## ── Column specification ────────────────────────────────────────────────────────
    ## Delimiter: ","
    ## chr (22): Division, Line, Station Name, Route1, Route2, Route3, Route4, Rout...
    ## dbl  (8): Station Latitude, Station Longitude, Route8, Route9, Route10, Rout...
    ## lgl  (2): ADA, Free Crossover
    ## 
    ## ℹ Use `spec()` to retrieve the full column specification for this data.
    ## ℹ Specify the column types or set `show_col_types = FALSE` to quiet this message.

``` r
transit_data
```

    ## # A tibble: 1,868 × 32
    ##    division line   station_name station_latitude station_longitude route1 route2
    ##    <chr>    <chr>  <chr>                   <dbl>             <dbl> <chr>  <chr> 
    ##  1 BMT      4 Ave… 25th St                  40.7             -74.0 R      <NA>  
    ##  2 BMT      4 Ave… 25th St                  40.7             -74.0 R      <NA>  
    ##  3 BMT      4 Ave… 36th St                  40.7             -74.0 N      R     
    ##  4 BMT      4 Ave… 36th St                  40.7             -74.0 N      R     
    ##  5 BMT      4 Ave… 36th St                  40.7             -74.0 N      R     
    ##  6 BMT      4 Ave… 45th St                  40.6             -74.0 R      <NA>  
    ##  7 BMT      4 Ave… 45th St                  40.6             -74.0 R      <NA>  
    ##  8 BMT      4 Ave… 45th St                  40.6             -74.0 R      <NA>  
    ##  9 BMT      4 Ave… 45th St                  40.6             -74.0 R      <NA>  
    ## 10 BMT      4 Ave… 53rd St                  40.6             -74.0 R      <NA>  
    ## # ℹ 1,858 more rows
    ## # ℹ 25 more variables: route3 <chr>, route4 <chr>, route5 <chr>, route6 <chr>,
    ## #   route7 <chr>, route8 <dbl>, route9 <dbl>, route10 <dbl>, route11 <dbl>,
    ## #   entrance_type <chr>, entry <chr>, exit_only <chr>, vending <chr>,
    ## #   staffing <chr>, staff_hours <chr>, ada <lgl>, ada_notes <chr>,
    ## #   free_crossover <lgl>, north_south_street <chr>, east_west_street <chr>,
    ## #   corner <chr>, entrance_latitude <dbl>, entrance_longitude <dbl>, …

``` r
select(transit_data, line, station_location, station_name, station_latitude,  station_longitude, starts_with("route"), entry, vending, entrance_type, ada) %>%

mutate(
  entry = case_match(
    entry,
    "YES" ~ 1,
    "NO" ~ 0))
```

    ## # A tibble: 1,868 × 20
    ##    line  station_location station_name station_latitude station_longitude route1
    ##    <chr> <chr>            <chr>                   <dbl>             <dbl> <chr> 
    ##  1 4 Av… (40.660397, -73… 25th St                  40.7             -74.0 R     
    ##  2 4 Av… (40.660397, -73… 25th St                  40.7             -74.0 R     
    ##  3 4 Av… (40.655144, -74… 36th St                  40.7             -74.0 N     
    ##  4 4 Av… (40.655144, -74… 36th St                  40.7             -74.0 N     
    ##  5 4 Av… (40.655144, -74… 36th St                  40.7             -74.0 N     
    ##  6 4 Av… (40.648939, -74… 45th St                  40.6             -74.0 R     
    ##  7 4 Av… (40.648939, -74… 45th St                  40.6             -74.0 R     
    ##  8 4 Av… (40.648939, -74… 45th St                  40.6             -74.0 R     
    ##  9 4 Av… (40.648939, -74… 45th St                  40.6             -74.0 R     
    ## 10 4 Av… (40.645069, -74… 53rd St                  40.6             -74.0 R     
    ## # ℹ 1,858 more rows
    ## # ℹ 14 more variables: route2 <chr>, route3 <chr>, route4 <chr>, route5 <chr>,
    ## #   route6 <chr>, route7 <chr>, route8 <dbl>, route9 <dbl>, route10 <dbl>,
    ## #   route11 <dbl>, entry <dbl>, vending <chr>, entrance_type <chr>, ada <lgl>

*Read and clean data *

``` r
transit_data
```

    ## # A tibble: 1,868 × 32
    ##    division line   station_name station_latitude station_longitude route1 route2
    ##    <chr>    <chr>  <chr>                   <dbl>             <dbl> <chr>  <chr> 
    ##  1 BMT      4 Ave… 25th St                  40.7             -74.0 R      <NA>  
    ##  2 BMT      4 Ave… 25th St                  40.7             -74.0 R      <NA>  
    ##  3 BMT      4 Ave… 36th St                  40.7             -74.0 N      R     
    ##  4 BMT      4 Ave… 36th St                  40.7             -74.0 N      R     
    ##  5 BMT      4 Ave… 36th St                  40.7             -74.0 N      R     
    ##  6 BMT      4 Ave… 45th St                  40.6             -74.0 R      <NA>  
    ##  7 BMT      4 Ave… 45th St                  40.6             -74.0 R      <NA>  
    ##  8 BMT      4 Ave… 45th St                  40.6             -74.0 R      <NA>  
    ##  9 BMT      4 Ave… 45th St                  40.6             -74.0 R      <NA>  
    ## 10 BMT      4 Ave… 53rd St                  40.6             -74.0 R      <NA>  
    ## # ℹ 1,858 more rows
    ## # ℹ 25 more variables: route3 <chr>, route4 <chr>, route5 <chr>, route6 <chr>,
    ## #   route7 <chr>, route8 <dbl>, route9 <dbl>, route10 <dbl>, route11 <dbl>,
    ## #   entrance_type <chr>, entry <chr>, exit_only <chr>, vending <chr>,
    ## #   staffing <chr>, staff_hours <chr>, ada <lgl>, ada_notes <chr>,
    ## #   free_crossover <lgl>, north_south_street <chr>, east_west_street <chr>,
    ## #   corner <chr>, entrance_latitude <dbl>, entrance_longitude <dbl>, …
…
*How many stations*

``` r
number_stations=
  distinct(transit_data_clean, station_name, line)
number_stations
```

    ## # A tibble: 465 × 2
    ##    station_name             line    
    ##    <chr>                    <chr>   
    ##  1 25th St                  4 Avenue
    ##  2 36th St                  4 Avenue
    ##  3 45th St                  4 Avenue
    ##  4 53rd St                  4 Avenue
    ##  5 59th St                  4 Avenue
    ##  6 77th St                  4 Avenue
    ##  7 86th St                  4 Avenue
    ##  8 95th St                  4 Avenue
    ##  9 9th St                   4 Avenue
    ## 10 Atlantic Av-Barclays Ctr 4 Avenue
    ## # ℹ 455 more rows
…
``` r
#Combine
tidy_trash=
  bind_rows(Mr_trash_wheel, Professor_Trash_Wheel, Gwynnda_Trash_Wheel)

tidy_trash
```

    ## # A tibble: 1,038 × 14
    ##    dumpster weight_tons volume_cubic_yards plastic_bottles polystyrene
    ##       <dbl>       <dbl>              <dbl>           <dbl>       <dbl>
    ##  1        1        4.31                 18            1450        1820
    ##  2        2        2.74                 13            1120        1030
    ##  3        3        3.45                 15            2450        3100
    ##  4        4        3.1                  15            2380        2730
    ##  5        5        4.06                 18             980         870
    ##  6        6        2.71                 13            1430        2140
    ##  7        7        1.91                  8             910        1090
    ##  8        8        3.7                  16            3580        4310
    ##  9        9        2.52                 14            2400        2790
    ## 10       10        3.76                 18            1340        1730
    ## # ℹ 1,028 more rows
    ## # ℹ 9 more variables: cigarette_butts <dbl>, glass_bottles <dbl>,
    ## #   plastic_bags <dbl>, wrappers <dbl>, sports_balls <int>,
    ## #   homes_powered <dbl>, x15 <lgl>, x16 <lgl>, date <dttm>
…
