…
``` r
  na=c(".","NA","")
```

*read data*

``` r
transit_data
```

    ## # A tibble: 1,868 × 32
    ##    division line   station_name station_latitude station_longitude route1 route2
    ##    <chr>    <chr>  <chr>                   <dbl>             <dbl> <chr>  <chr> 
    ##  1 BMT      4 Ave… 25th St                  40.7             -74.0 R      <NA>  
    ##  2 BMT      4 Ave… 25th St                  40.7             -74.0 R      <NA>  
    ##  3 BMT      4 Ave… 36th St                  40.7             -74.0 N      R     
    ##  4 BMT      4 Ave… 36th St                  40.7             -74.0 N      R     
    ##  5 BMT      4 Ave… 36th St                  40.7             -74.0 N      R     
    ##  6 BMT      4 Ave… 45th St                  40.6             -74.0 R      <NA>  
    ##  7 BMT      4 Ave… 45th St                  40.6             -74.0 R      <NA>  
    ##  8 BMT      4 Ave… 45th St                  40.6             -74.0 R      <NA>  
    ##  9 BMT      4 Ave… 45th St                  40.6             -74.0 R      <NA>  
    ## 10 BMT      4 Ave… 53rd St                  40.6             -74.0 R      <NA>  
    ## # ℹ 1,858 more rows
    ## # ℹ 25 more variables: route3 <chr>, route4 <chr>, route5 <chr>, route6 <chr>,
    ## #   route7 <chr>, route8 <dbl>, route9 <dbl>, route10 <dbl>, route11 <dbl>,
    ## #   entrance_type <chr>, entry <chr>, exit_only <chr>, vending <chr>,
    ## #   staffing <chr>, staff_hours <chr>, ada <lgl>, ada_notes <chr>,
    ## #   free_crossover <lgl>, north_south_street <chr>, east_west_street <chr>,
    ## #   corner <chr>, entrance_latitude <dbl>, entrance_longitude <dbl>, …
…
